{"creditCardFees": [],
"currency": "EUR", 
"defaultCreditCard": "VISACREDIT", 
"fees": {"cardFee": 0, "cardType": "American Express", "freeLuggages": 0}, 
"id": 2300, 
"outArrCity": "Dublin", 
"outArrCode": "DUB", 
"outArrDate": [2019, 11, 11, 14, 10], 
"outArrName": "Dublin Airport", 
"outArrNearby": false, 
"outArrType": 1, 
"outDepCity": "Toulouse", 
"outDepCode": "TLS", 
"outDepDate": [2019, 11, 11, 13, 5], 
"outDepName": "Toulouse–Blagnac Airport", 
"outDepNearby": false, 
"outDepType": 1, 
"outDuration": 125, 
"outStops": 0, 
"outSuppliers": ["FR"], 
"provider": "EDR", 
"providerHomepageUrl": "www.edreams.fr/", 
"providerLogo": "EDR", 
"providerName": "eDreams", 
"providerRating": 97, 
"providerType": 1, 
"rank": 0, 
"resultId": "wJGBirv11Is8ICDCC8ILAAE", 
"retArrCity": "Toulouse", 
"retArrCode": "TLS", 
"retArrDate": [2020, 0, 29, 22, 30], 
"retArrName": "Toulouse–Blagnac Airport", 
"retArrNearby": false, 
"retArrType": 1, 
"retDepCity": "Dublin", 
"retDepCode": "DUB", 
"retDepDate": [2020, 0, 29, 8, 30], 
"retDepName": "Dublin Airport", 
"retDepNearby": false, 
"retDepType": 1, 
"retDuration": 780, 
"retStops": 1, 
"retSuppliers": ["BA"], 
"suppliers": {"FR": {"name": "Ryanair"}, "BA": {"name": "British Airways"}}, 
"totalPrice": 189.43999267555773, 
"totalPrices": [], 
"transportType": 0, 
"type": 1}